…
biomes_example |>
  bind_cols(class) |>
  select(species, ends_with("_name")) |>
  pivot_longer(
    cols      = ends_with("_name"),
    names_to  = "layer",
    values_to = "biome"
  ) |>
  distinct(layer, biome, species) |>
  count(layer, biome, name = "n_species")
#> # A tibble: 42 × 3
#>    layer                         biome                                n_species
#>    <chr>                         <chr>                                    <int>
#>  1 Biome_Inventory_layer_01_name Boreal evergreen needleleaf forest           7
#>  2 Biome_Inventory_layer_01_name Boreal parkland                             11
#>  3 Biome_Inventory_layer_01_name Boreal summergreen broadleaf forest          5
#>  4 Biome_Inventory_layer_01_name Desert                                      10
#>  5 Biome_Inventory_layer_01_name Savanna                                     17
#>  6 Biome_Inventory_layer_01_name Semidesert                                  12
#>  7 Biome_Inventory_layer_01_name Shrub tundra                                 5
#>  8 Biome_Inventory_layer_01_name Steppe                                      11
#>  9 Biome_Inventory_layer_01_name Temperate broadleaf evergreen forest        25
#> 10 Biome_Inventory_layer_01_name Temperate mixed forest                      10
#> # ℹ 32 more rows
```
